My first R Markdown script
…
3. Summarize and plot the data

3.1 Create summary table

data3 <- data2 %>% 
  group_by(What.is.your.age., How.many.cups.of.coffee.do.you.typically.drink.per.day.) %>% 
  summarize(Count = n())

`summarise()` has grouped output by 'What.is.your.age.'. You can override using
the `.groups` argument.

data3

# A tibble: 40 × 3
# Groups:   What.is.your.age. [7]
   What.is.your.age. How.many.cups.of.coffee.do.you.typically.drink.per.…¹ Count
   <fct>             <fct>                                                 <int>
 1 <18 years old     1                                                         6
 2 <18 years old     2                                                         7
 3 <18 years old     3                                                         1
 4 <18 years old     Less than 1                                               5
 5 >65 years old     1                                                        21
 6 >65 years old     2                                                        37
 7 >65 years old     3                                                        17
 8 >65 years old     4                                                         7
 9 >65 years old     Less than 1                                               5
10 >65 years old     More than 4                                               7
# ℹ 30 more rows
# ℹ abbreviated name: ¹​How.many.cups.of.coffee.do.you.typically.drink.per.day.
…
